^C:\USERS\CHRISTOS\DOCUMENTS\VISUAL STUDIO 2013\PROJECTS\EX1\EX1\IMAGE.CPP
/c /ZI /nologo /W3 /WX- /Od /Oy- /D WIN32 /D _DEBUG /D _CONSOLE /D _LIB /D _UNICODE /D UNICODE /Gm /EHsc /RTC1 /MDd /GS /fp:precise /Zc:wchar_t /Zc:forScope /Fo"DEBUG\\" /Fd"DEBUG\VC120.PDB" /Gd /TP /analyze- C:\USERS\CHRISTOS\DOCUMENTS\VISUAL STUDIO 2013\PROJECTS\EX1\EX1\IMAGE.CPP
^C:\USERS\CHRISTOS\DOCUMENTS\VISUAL STUDIO 2013\PROJECTS\EX1\EX1\MAIN.CPP
/c /ZI /nologo /W3 /WX- /Od /Oy- /D WIN32 /D _DEBUG /D _CONSOLE /D _LIB /D _UNICODE /D UNICODE /Gm /EHsc /RTC1 /MDd /GS /fp:precise /Zc:wchar_t /Zc:forScope /Fo"DEBUG\\" /Fd"DEBUG\VC120.PDB" /Gd /TP /analyze- C:\USERS\CHRISTOS\DOCUMENTS\VISUAL STUDIO 2013\PROJECTS\EX1\EX1\MAIN.CPP
